Primeiros Passos com tidyr e dplyr
…
td

## # A tibble: 50 × 13
##       id   jan    fev    mar   abr   mai   jun   jul    ago   set   out   nov
##    <int> <dbl>  <dbl>  <dbl> <dbl> <dbl> <dbl> <dbl>  <dbl> <dbl> <dbl> <dbl>
##  1     1  1.86  0.869  2.83   7.52 11.0  2.51  10.8   2.52   4.50  8.27  14.3
##  2     2  1.30 -0.129  0.434  7.88  8.38 2.16  10.3   0.541  5.54  8.63  14.6
##  3     3  3.35  1.16   1.63   5.71  9.81 0.890  9.95  1.75   5.93  8.39  14.9
##  4     4  5.58  1.30   0.736  6.01  9.25 0.719 10.0  -1.12   5.82  7.52  15.3
##  5     5  3.41  1.57   0.929  3.92  9.18 1.37  10.9  -0.172  7.23  8.11  15.4
##  6     6  5.68  1.43   0.728  6.40  9.67 0.359 10.1   0.503  4.62  7.81  15.0
##  7     7  4.87  1.64   2.49   6.82 10.7  1.48  10.4  -1.37   4.16  6.67  14.7
##  8     8  4.13  1.97   0.693  4.67  8.82 2.06  10.7  -0.178  4.96  6.89  14.9
##  9     9  1.75  1.97  -0.162  6.88  8.84 1.36  11.4  -0.417  5.12  7.88  12.8
## 10    10  4.72  1.34   3.62   5.84  8.90 2.72  10.6  -0.725  3.82  7.47  17.0
## # … with 40 more rows, and 1 more variable: dez <dbl>
…
Para forçar os dados a assumirem o formato longo basta utilizar a
função gather, nesta função você fornece o nome de duas
colunas a serem criadas: a key e a value. Além disso deve-se informar as
colunas que se tem interesse em empilhar.

td_gat <- td %>% gather(key = 'mes', value = 'valor', jan:dez)
td_gat

## # A tibble: 600 × 3
##       id mes   valor
##    <int> <chr> <dbl>
##  1     1 jan    1.86
##  2     2 jan    1.30
##  3     3 jan    3.35
##  4     4 jan    5.58
##  5     5 jan    3.41
##  6     6 jan    5.68
##  7     7 jan    4.87
##  8     8 jan    4.13
##  9     9 jan    1.75
## 10    10 jan    4.72
## # … with 590 more rows

Para fazer com que os dados retornem ao formato original basta
utilizar a função spread:

td_gat %>% spread(key=mes, value = valor)

## # A tibble: 50 × 13
##       id   abr    ago    dez    fev   jan   jul   jun   mai    mar   nov   out
##    <int> <dbl>  <dbl>  <dbl>  <dbl> <dbl> <dbl> <dbl> <dbl>  <dbl> <dbl> <dbl>
##  1     1  7.52  2.52   1.05   0.869  1.86 10.8  2.51  11.0   2.83   14.3  8.27
##  2     2  7.88  0.541  0.747 -0.129  1.30 10.3  2.16   8.38  0.434  14.6  8.63
##  3     3  5.71  1.75   2.72   1.16   3.35  9.95 0.890  9.81  1.63   14.9  8.39
##  4     4  6.01 -1.12   2.06   1.30   5.58 10.0  0.719  9.25  0.736  15.3  7.52
##  5     5  3.92 -0.172  1.49   1.57   3.41 10.9  1.37   9.18  0.929  15.4  8.11
##  6     6  6.40  0.503  2.75   1.43   5.68 10.1  0.359  9.67  0.728  15.0  7.81
##  7     7  6.82 -1.37  -0.214  1.64   4.87 10.4  1.48  10.7   2.49   14.7  6.67
##  8     8  4.67 -0.178  1.72   1.97   4.13 10.7  2.06   8.82  0.693  14.9  6.89
##  9     9  6.88 -0.417 -0.283  1.97   1.75 11.4  1.36   8.84 -0.162  12.8  7.88
## 10    10  5.84 -0.725  2.08   1.34   4.72 10.6  2.72   8.90  3.62   17.0  7.47
## # … with 40 more rows, and 1 more variable: set <dbl>
…
names(select4)

## [1] "Agriculture"      "Examination"      "Education"        "Catholic"        
## [5] "Infant.Mortality"

3.3 Ordenar a base

Para ordenação com base em uma coluna o dplyr dispõe da
função arrange():

df <- tibble(letras = letters,
             valor = rnorm(length(letters)))
df

## # A tibble: 26 × 2
##    letras   valor
##    <chr>    <dbl>
##  1 a      -0.630 
##  2 b       0.608 
##  3 c      -0.944 
##  4 d      -1.16  
##  5 e      -0.0887
##  6 f       0.541 
##  7 g      -1.47  
##  8 h       1.41  
##  9 i      -1.33  
## 10 j      -1.32  
## # … with 16 more rows

df %>%  arrange(desc(letras))

## # A tibble: 26 × 2
##    letras  valor
##    <chr>   <dbl>
##  1 z      -0.245
##  2 y      -0.841
##  3 x      -0.729
##  4 w       0.416
##  5 v      -1.92 
##  6 u      -0.299
##  7 t       0.522
##  8 s       0.599
##  9 r      -0.395
## 10 q      -0.146
## # … with 16 more rows

df %>% arrange(letras)

## # A tibble: 26 × 2
##    letras   valor
##    <chr>    <dbl>
##  1 a      -0.630 
##  2 b       0.608 
##  3 c      -0.944 
##  4 d      -1.16  
##  5 e      -0.0887
##  6 f       0.541 
##  7 g      -1.47  
##  8 h       1.41  
##  9 i      -1.33  
## 10 j      -1.32  
## # … with 16 more rows
…
A criação e modificação de colunas pode ser feita com a função
mutate(), com ela é possível:

Sobrescreve uma coluna.

Criar uma nova coluna.

Criar diversas colunas no mesmo mutate.

df2 <- tibble(col1 = rnorm(50), col2 = rpois(50, 1))
df2

## # A tibble: 50 × 2
##      col1  col2
##     <dbl> <int>
##  1  0.588     1
##  2 -1.14      2
##  3  0.940     0
##  4 -1.13      0
##  5 -0.283     1
##  6  0.493     0
##  7 -1.64      0
##  8  0.724     0
##  9  1.79      2
## 10 -0.646     1
## # … with 40 more rows

3.4.1 Sobrescreve uma
coluna

mutate1 <- df2 %>% mutate(col2 = letters[1:10] %>% rep(5))
df2[,2]

## # A tibble: 50 × 1
##     col2
##    <int>
##  1     1
##  2     2
##  3     0
##  4     0
##  5     1
##  6     0
##  7     0
##  8     0
##  9     2
## 10     1
## # … with 40 more rows

mutate1[,2]

## # A tibble: 50 × 1
##    col2 
##    <chr>
##  1 a    
##  2 b    
##  3 c    
##  4 d    
##  5 e    
##  6 f    
##  7 g    
##  8 h    
##  9 i    
## 10 j    
## # … with 40 more rows

3.4.2 Criar uma nova
coluna

mutate2 <- df2 %>% mutate(col3 = 1:nrow(df2))
df2

## # A tibble: 50 × 2
##      col1  col2
##     <dbl> <int>
##  1  0.588     1
##  2 -1.14      2
##  3  0.940     0
##  4 -1.13      0
##  5 -0.283     1
##  6  0.493     0
##  7 -1.64      0
##  8  0.724     0
##  9  1.79      2
## 10 -0.646     1
## # … with 40 more rows

mutate2

## # A tibble: 50 × 3
##      col1  col2  col3
##     <dbl> <int> <int>
##  1  0.588     1     1
##  2 -1.14      2     2
##  3  0.940     0     3
##  4 -1.13      0     4
##  5 -0.283     1     5
##  6  0.493     0     6
##  7 -1.64      0     7
##  8  0.724     0     8
##  9  1.79      2     9
## 10 -0.646     1    10
## # … with 40 more rows

3.4.3 Criar diversas
colunas no mesmo mutate.

mutate3 <- df2 %>%  mutate( col3 = col1 + col2,
                            col4 = 1:nrow(df2),
                            col5 = col1 * 10)

df2

## # A tibble: 50 × 2
##      col1  col2
##     <dbl> <int>
##  1  0.588     1
##  2 -1.14      2
##  3  0.940     0
##  4 -1.13      0
##  5 -0.283     1
##  6  0.493     0
##  7 -1.64      0
##  8  0.724     0
##  9  1.79      2
## 10 -0.646     1
## # … with 40 more rows

mutate3

## # A tibble: 50 × 5
##      col1  col2   col3  col4   col5
##     <dbl> <int>  <dbl> <int>  <dbl>
##  1  0.588     1  1.59      1   5.88
##  2 -1.14      2  0.858     2 -11.4 
##  3  0.940     0  0.940     3   9.40
##  4 -1.13      0 -1.13      4 -11.3 
##  5 -0.283     1  0.717     5  -2.83
##  6  0.493     0  0.493     6   4.93
##  7 -1.64      0 -1.64      7 -16.4 
##  8  0.724     0  0.724     8   7.24
##  9  1.79      2  3.79      9  17.9 
## 10 -0.646     1  0.354    10  -6.46
## # … with 40 more rows
…
